{
  "project_info": {
    "project_number": "598443011427",
    "firebase_url": "https://chaticus-app.firebaseio.com",
    "project_id": "chaticus-app",
    "storage_bucket": "chaticus-app.appspot.com"
  },
  "client": [
    {
      "client_info": {
        "mobilesdk_app_id": "1:598443011427:android:27af1bf00da2aa33",
        "android_client_info": {
          "package_name": "edu.lsus.chaticus"
        }
      },
      "oauth_client": [
        {
          "client_id": "598443011427-ncgb2ra9tnd9qne0dc4gh72udpesi1if.apps.googleusercontent.com",
          "client_type": 1,
          "android_info": {
            "package_name": "edu.lsus.chaticus",
            "certificate_hash": "7d190054a3f6011ce311b38b3d1d56b465f74df3"
          }
        },
        {
          "client_id": "598443011427-h8c5qbg56t55ki66dok6phr6g6fri2ch.apps.googleusercontent.com",
          "client_type": 3
        }
      ],
      "api_key": [
        {
          "current_key": "AIzaSyAPrLiYQXKL5dRhw7Uw7qzxwSQ7OjA927E"
        }
      ],
      "services": {
        "analytics_service": {
          "status": 1
        },
        "appinvite_service": {
          "status": 2,
          "other_platform_oauth_client": [
            {
              "client_id": "598443011427-h8c5qbg56t55ki66dok6phr6g6fri2ch.apps.googleusercontent.com",
              "client_type": 3
            }
          ]
        },
        "ads_service": {
          "status": 2
        }
      }
    }
  ],
  "configuration_version": "1"
}